function;address
ch_53;0
ch_39;2
ch_38;3
ch_37;4
ch_36;5
ch_43;6
ch_42;7
ch_41;8
ch_40;9
ch_47;10
ch_46;11
ch_45;12
ch_44;13
ch_51;14
ch_50;15
ch_49;16
ch_48;17
calib_1;18
cm_2;19
cm_3;20
ch_54;21
ch_56;22
ch_57;23
ch_58;24
ch_59;25
ch_60;26
ch_61;27
ch_62;28
ch_63;29
ch_64;30
ch_65;31
ch_66;32
ch_67;33
ch_68;34
ch_69;35
ch_70;36
ch_71;37
ch_52;38
ch_55;39
ReferenceVoltage_1;40
GlobalAnalog_1;41
MasterTdc_1;42
DigitalHalf_1;43
Top;44
ch_17;256
ch_3;258
ch_2;259
ch_1;260
ch_0;261
ch_7;262
ch_6;263
ch_5;264
ch_4;265
ch_11;266
ch_10;267
ch_9;268
ch_8;269
ch_15;270
ch_14;271
ch_13;272
ch_12;273
calib_0;274
cm_0;275
cm_1;276
ch_18;277
ch_20;278
ch_21;279
ch_22;280
ch_23;281
ch_24;282
ch_25;283
ch_26;284
ch_27;285
ch_28;286
ch_29;287
ch_30;288
ch_31;289
ch_32;290
ch_33;291
ch_34;292
ch_35;293
ch_16;294
ch_19;295
ReferenceVoltage_0;296
GlobalAnalog_0;297
MasterTdc_0;298
DigitalHalf_0;299
